G04*
G04 #@! TF.GenerationSoftware,Altium Limited,Altium Designer,18.1.7 (191)*
G04*
G04 Layer_Physical_Order=1*
G04 Layer_Color=255*
%FSLAX25Y25*%
%MOIN*%
G70*
G01*
G75*
%ADD15C,0.01000*%
G04:AMPARAMS|DCode=16|XSize=39.37mil|YSize=35.43mil|CornerRadius=4.43mil|HoleSize=0mil|Usage=FLASHONLY|Rotation=0.000|XOffset=0mil|YOffset=0mil|HoleType=Round|Shape=RoundedRectangle|*
%AMROUNDEDRECTD16*
21,1,0.03937,0.02657,0,0,0.0*
21,1,0.03051,0.03543,0,0,0.0*
1,1,0.00886,0.01526,-0.01329*
1,1,0.00886,-0.01526,-0.01329*
1,1,0.00886,-0.01526,0.01329*
1,1,0.00886,0.01526,0.01329*
%
%ADD16ROUNDEDRECTD16*%
G04:AMPARAMS|DCode=17|XSize=90.55mil|YSize=70.87mil|CornerRadius=8.86mil|HoleSize=0mil|Usage=FLASHONLY|Rotation=270.000|XOffset=0mil|YOffset=0mil|HoleType=Round|Shape=RoundedRectangle|*
%AMROUNDEDRECTD17*
21,1,0.09055,0.05315,0,0,270.0*
21,1,0.07284,0.07087,0,0,270.0*
1,1,0.01772,-0.02657,-0.03642*
1,1,0.01772,-0.02657,0.03642*
1,1,0.01772,0.02657,0.03642*
1,1,0.01772,0.02657,-0.03642*
%
%ADD17ROUNDEDRECTD17*%
G04:AMPARAMS|DCode=18|XSize=39.37mil|YSize=35.43mil|CornerRadius=4.43mil|HoleSize=0mil|Usage=FLASHONLY|Rotation=90.000|XOffset=0mil|YOffset=0mil|HoleType=Round|Shape=RoundedRectangle|*
%AMROUNDEDRECTD18*
21,1,0.03937,0.02657,0,0,90.0*
21,1,0.03051,0.03543,0,0,90.0*
1,1,0.00886,0.01329,0.01526*
1,1,0.00886,0.01329,-0.01526*
1,1,0.00886,-0.01329,-0.01526*
1,1,0.00886,-0.01329,0.01526*
%
%ADD18ROUNDEDRECTD18*%
%ADD19R,0.11024X0.02520*%
%ADD20R,0.19685X0.03937*%
%ADD21R,0.19685X0.05512*%
%ADD22R,0.05906X0.18110*%
%ADD23R,0.07874X0.23622*%
%ADD24R,0.02520X0.11024*%
%ADD25R,0.02362X0.05512*%
%ADD26R,0.02362X0.07087*%
G04:AMPARAMS|DCode=27|XSize=70.87mil|YSize=51.18mil|CornerRadius=6.4mil|HoleSize=0mil|Usage=FLASHONLY|Rotation=90.000|XOffset=0mil|YOffset=0mil|HoleType=Round|Shape=RoundedRectangle|*
%AMROUNDEDRECTD27*
21,1,0.07087,0.03839,0,0,90.0*
21,1,0.05807,0.05118,0,0,90.0*
1,1,0.01280,0.01919,0.02904*
1,1,0.01280,0.01919,-0.02904*
1,1,0.01280,-0.01919,-0.02904*
1,1,0.01280,-0.01919,0.02904*
%
%ADD27ROUNDEDRECTD27*%
%ADD28C,0.05118*%
%ADD48C,0.03937*%
%ADD49R,0.02362X0.14900*%
%ADD50R,0.05154X0.18280*%
%ADD51R,0.06465X0.01673*%
%ADD52R,0.04400X0.06100*%
%ADD53R,0.03300X0.12900*%
%ADD54R,0.03587X0.06772*%
%ADD55R,0.20800X0.12054*%
%ADD56R,0.20600X0.12000*%
%ADD57R,0.20400X0.11900*%
%ADD58R,0.20400X0.12100*%
G04:AMPARAMS|DCode=59|XSize=100mil|YSize=100mil|CornerRadius=12.5mil|HoleSize=0mil|Usage=FLASHONLY|Rotation=90.000|XOffset=0mil|YOffset=0mil|HoleType=Round|Shape=RoundedRectangle|*
%AMROUNDEDRECTD59*
21,1,0.10000,0.07500,0,0,90.0*
21,1,0.07500,0.10000,0,0,90.0*
1,1,0.02500,0.03750,0.03750*
1,1,0.02500,0.03750,-0.03750*
1,1,0.02500,-0.03750,-0.03750*
1,1,0.02500,-0.03750,0.03750*
%
%ADD59ROUNDEDRECTD59*%
%ADD60C,0.10000*%
%ADD61C,0.15748*%
%ADD62C,0.02362*%
%ADD63C,0.01968*%
G36*
X517300Y169806D02*
X510112D01*
X509878Y169931D01*
X508654Y170302D01*
X507380Y170428D01*
X417538D01*
Y173349D01*
X402735D01*
Y170428D01*
X384546D01*
Y180569D01*
X381131D01*
Y215251D01*
X381183Y215650D01*
Y222933D01*
X381131Y223331D01*
Y237603D01*
X381563Y237782D01*
X382646Y238614D01*
X383478Y239697D01*
X384000Y240959D01*
X384179Y242313D01*
Y249813D01*
X384000Y251167D01*
X383478Y252429D01*
X382646Y253512D01*
X381563Y254344D01*
X380301Y254867D01*
X378947Y255045D01*
X371447D01*
X370093Y254867D01*
X368831Y254344D01*
X367747Y253512D01*
X366916Y252429D01*
X366393Y251167D01*
X366215Y249813D01*
Y242313D01*
X366393Y240959D01*
X366916Y239697D01*
X367747Y238614D01*
X368831Y237782D01*
X369263Y237603D01*
Y227432D01*
X368572Y227146D01*
X367564Y226373D01*
X366791Y225365D01*
X366346Y224291D01*
X365953D01*
Y214291D01*
X366346D01*
X366791Y213217D01*
X367564Y212210D01*
X368572Y211437D01*
X369263Y211151D01*
Y210486D01*
X369253Y210416D01*
Y207365D01*
X369263Y207295D01*
Y204548D01*
X369253Y204478D01*
Y201427D01*
X369263Y201357D01*
Y180569D01*
X365648D01*
Y170428D01*
X344593D01*
Y176892D01*
X330813D01*
Y150908D01*
X344593D01*
Y157372D01*
X353808D01*
X353886Y157362D01*
X356937D01*
X357016Y157372D01*
X391210D01*
X391288Y157362D01*
X394339D01*
X394417Y157372D01*
X402735D01*
Y154451D01*
X417538D01*
Y157372D01*
X475435D01*
X475971Y157150D01*
X477115Y157000D01*
X480166D01*
X481309Y157150D01*
X481845Y157372D01*
X507380D01*
X508654Y157498D01*
X509878Y157869D01*
X510112Y157994D01*
X517300D01*
Y102522D01*
X102800D01*
Y157994D01*
X110168D01*
X110402Y157869D01*
X111627Y157498D01*
X112900Y157372D01*
X139296D01*
X139374Y157362D01*
X142426D01*
X143156Y155649D01*
Y154451D01*
X157959D01*
Y157372D01*
X170010D01*
X170205Y157392D01*
X170400Y157372D01*
X172323D01*
X172810Y156999D01*
X173924Y156537D01*
X175119Y156380D01*
X190374D01*
X191569Y156537D01*
X192683Y156999D01*
X192954Y157207D01*
X201081D01*
X201475Y157207D01*
X203050D01*
X203443Y157207D01*
X213286D01*
Y157207D01*
X213874Y157362D01*
X216926D01*
X217004Y157372D01*
X234517D01*
X234595Y157362D01*
X237646D01*
X237724Y157372D01*
X278796D01*
X278874Y157362D01*
X281926D01*
X282004Y157372D01*
X309714D01*
X309792Y157362D01*
X311010D01*
Y150908D01*
X324790D01*
Y176892D01*
X313414D01*
Y215727D01*
X313424Y215797D01*
Y218455D01*
X313273Y219598D01*
X312911Y220472D01*
X313273Y221347D01*
X313424Y222490D01*
Y225148D01*
X313396Y225360D01*
X313414Y225551D01*
Y237603D01*
X313846Y237782D01*
X314930Y238614D01*
X315761Y239697D01*
X316284Y240959D01*
X316462Y242313D01*
Y249813D01*
X316284Y251167D01*
X315761Y252429D01*
X314930Y253512D01*
X313846Y254344D01*
X312584Y254867D01*
X311230Y255045D01*
X303730D01*
X302376Y254867D01*
X301114Y254344D01*
X300031Y253512D01*
X299200Y252429D01*
X298677Y251167D01*
X298499Y249813D01*
Y242313D01*
X298677Y240959D01*
X299200Y239697D01*
X300031Y238614D01*
X301114Y237782D01*
X301546Y237603D01*
Y225551D01*
X301565Y225360D01*
X301537Y225148D01*
Y222490D01*
X301688Y221347D01*
X302050Y220472D01*
X301688Y219598D01*
X301537Y218455D01*
Y215797D01*
X301546Y215727D01*
Y212619D01*
X301537Y212549D01*
Y209498D01*
X301546Y209428D01*
Y206320D01*
X301537Y206250D01*
Y203199D01*
X301546Y203129D01*
Y200021D01*
X301537Y199951D01*
Y196900D01*
X301546Y196830D01*
Y173535D01*
X301437Y172705D01*
Y170428D01*
X233849D01*
Y180624D01*
X230328D01*
X230280Y192724D01*
X230259Y198189D01*
X231663Y200149D01*
X231672Y200157D01*
X233858D01*
Y204567D01*
Y214961D01*
X231942D01*
X231331Y215658D01*
Y222942D01*
X231165Y224201D01*
X230679Y225374D01*
X230344Y225811D01*
Y237603D01*
X230775Y237782D01*
X231859Y238614D01*
X232690Y239697D01*
X233213Y240959D01*
X233391Y242313D01*
Y249813D01*
X233213Y251167D01*
X232690Y252429D01*
X231859Y253512D01*
X230775Y254344D01*
X229514Y254867D01*
X228159Y255045D01*
X220659D01*
X219305Y254867D01*
X218044Y254344D01*
X216960Y253512D01*
X216129Y252429D01*
X215606Y251167D01*
X215428Y249813D01*
Y242313D01*
X215606Y240959D01*
X216129Y239697D01*
X216960Y238614D01*
X218044Y237782D01*
X218475Y237603D01*
Y226968D01*
X217711Y226381D01*
X216938Y225374D01*
X216494Y224300D01*
X216100D01*
Y214961D01*
X214961D01*
Y204567D01*
Y200157D01*
X218383D01*
X218388Y198776D01*
X218406Y194369D01*
X218400Y194326D01*
Y191274D01*
X218419Y191134D01*
X218455Y182019D01*
X217065Y180624D01*
X214951D01*
Y172008D01*
X214769Y171765D01*
X213286Y170593D01*
Y170593D01*
X213286Y170593D01*
X205805D01*
X203443Y168231D01*
X201081D01*
X198719Y170593D01*
X192954D01*
X192683Y170801D01*
X191569Y171263D01*
X190374Y171420D01*
X176407D01*
Y215727D01*
X176416Y215797D01*
Y218455D01*
X176265Y219598D01*
X175942Y220377D01*
X176344Y221347D01*
X176495Y222490D01*
Y225148D01*
X176407Y225816D01*
Y237603D01*
X176838Y237782D01*
X177922Y238614D01*
X178753Y239697D01*
X179276Y240959D01*
X179454Y242313D01*
Y249813D01*
X179276Y251167D01*
X178753Y252429D01*
X177922Y253512D01*
X176838Y254344D01*
X175576Y254867D01*
X174222Y255045D01*
X166722D01*
X165368Y254867D01*
X164107Y254344D01*
X163023Y253512D01*
X162192Y252429D01*
X161669Y251167D01*
X161491Y249813D01*
Y242313D01*
X161669Y240959D01*
X162192Y239697D01*
X163023Y238614D01*
X164107Y237782D01*
X164538Y237603D01*
Y224764D01*
X164608Y224058D01*
Y222490D01*
X164758Y221347D01*
X165081Y220567D01*
X164680Y219598D01*
X164529Y218455D01*
Y215797D01*
X164538Y215727D01*
Y212619D01*
X164529Y212549D01*
Y209498D01*
X164538Y209428D01*
Y206320D01*
X164529Y206250D01*
Y203199D01*
X164538Y203129D01*
Y200021D01*
X164529Y199951D01*
Y196900D01*
X164538Y196829D01*
Y173535D01*
X164429Y172705D01*
Y170428D01*
X157959D01*
Y173349D01*
X143156D01*
Y170428D01*
X112900D01*
X111627Y170302D01*
X110402Y169931D01*
X110168Y169806D01*
X102800D01*
Y259978D01*
X517300D01*
Y169806D01*
D02*
G37*
D15*
X224410Y246496D02*
X227598D01*
X374500Y246000D02*
X375197D01*
X307480Y224606D02*
Y225512D01*
X170551Y223740D02*
Y224685D01*
X170400Y163900D02*
Y165053D01*
X348400Y163109D02*
Y163900D01*
X236121Y163109D02*
Y163900D01*
X215400Y162593D02*
Y163699D01*
X139058Y163247D02*
Y163900D01*
D16*
X170551Y223819D02*
D03*
X170472Y217126D02*
D03*
X355412Y163109D02*
D03*
Y156416D02*
D03*
X307380Y164683D02*
D03*
Y171376D02*
D03*
X311317Y163109D02*
D03*
Y156416D02*
D03*
X280400Y163109D02*
D03*
Y156416D02*
D03*
X307480Y217126D02*
D03*
Y223819D02*
D03*
X170372Y164683D02*
D03*
Y171376D02*
D03*
X392813Y163109D02*
D03*
Y156416D02*
D03*
X417223Y156616D02*
D03*
Y163309D02*
D03*
X478640Y162747D02*
D03*
Y156053D02*
D03*
X215400Y156416D02*
D03*
Y163109D02*
D03*
X236121Y156416D02*
D03*
Y163109D02*
D03*
X140900Y156416D02*
D03*
Y163109D02*
D03*
D17*
X212391Y219300D02*
D03*
X223809D02*
D03*
X362244Y219291D02*
D03*
X373661D02*
D03*
D18*
X368307Y208891D02*
D03*
X375000D02*
D03*
Y202953D02*
D03*
X368307D02*
D03*
X307283Y198425D02*
D03*
X300591D02*
D03*
X300590Y211024D02*
D03*
X307283D02*
D03*
X307283Y204724D02*
D03*
X300591D02*
D03*
X224146Y198800D02*
D03*
X217453D02*
D03*
X224147Y192800D02*
D03*
X217454D02*
D03*
X163583Y211024D02*
D03*
X170276D02*
D03*
X163583Y198425D02*
D03*
X170276D02*
D03*
X163583Y204724D02*
D03*
X170276D02*
D03*
X487302Y163900D02*
D03*
X493995D02*
D03*
X261246D02*
D03*
X254624D02*
D03*
X132750D02*
D03*
X126058D02*
D03*
D19*
X375097Y165254D02*
D03*
Y175373D02*
D03*
X224410Y209764D02*
D03*
Y205354D02*
D03*
X224400Y175428D02*
D03*
Y165309D02*
D03*
D20*
X113000Y163900D02*
D03*
X507180D02*
D03*
D21*
X113000Y147168D02*
D03*
Y180632D02*
D03*
X506700Y147168D02*
D03*
Y180632D02*
D03*
D22*
X317900Y163900D02*
D03*
X337703D02*
D03*
D23*
X327802D02*
D03*
D24*
X412341D02*
D03*
X407932D02*
D03*
X152762D02*
D03*
X148353D02*
D03*
D25*
X196357D02*
D03*
X208168D02*
D03*
D26*
X202262Y164687D02*
D03*
D27*
X188455Y163900D02*
D03*
X177038D02*
D03*
D28*
X132750Y163900D02*
X139058D01*
X146853D01*
X112900D02*
X126058D01*
X337695D02*
X406593D01*
X413680D02*
X486514D01*
X494782D02*
X507380D01*
X236121D02*
X253837D01*
X279821D02*
X311317D01*
X262105D02*
X279821D01*
X311317D02*
X315254D01*
X214467D02*
X236121D01*
X209506D02*
X213763D01*
X154262D02*
X170010D01*
X188766D02*
X194396D01*
X170400D02*
X174337D01*
D48*
X224410Y246063D02*
Y246496D01*
Y210551D02*
Y246063D01*
X375197Y176696D02*
Y246000D01*
X224322Y198800D02*
X224346Y192700D01*
X224302Y204000D02*
X224322Y198800D01*
X224346Y192700D02*
X224410Y176763D01*
X375197Y246000D02*
Y246063D01*
X307480Y171376D02*
Y217126D01*
X307380Y171376D02*
X307480D01*
X170472D02*
Y217126D01*
X170372Y171376D02*
X170472D01*
Y224764D02*
Y246063D01*
Y224764D02*
X170551Y224685D01*
X307480Y225551D02*
Y246063D01*
Y246142D01*
D49*
X202264Y161750D02*
D03*
D50*
X162777Y204640D02*
D03*
D51*
X478668Y156536D02*
D03*
D52*
X417500Y155250D02*
D03*
D53*
X216350Y195450D02*
D03*
D54*
X311507Y153986D02*
D03*
D55*
X506900Y150027D02*
D03*
D56*
X507000Y177700D02*
D03*
D57*
X113000Y150050D02*
D03*
D58*
Y177750D02*
D03*
D59*
X375197Y246063D02*
D03*
X170472D02*
D03*
X307480D02*
D03*
X224410D02*
D03*
D60*
X360197D02*
D03*
X155472D02*
D03*
X292480D02*
D03*
X209409D02*
D03*
D61*
X202756Y196850D02*
D03*
Y133858D02*
D03*
X261811D02*
D03*
Y196850D02*
D03*
X419291Y133858D02*
D03*
Y196850D02*
D03*
X328740Y133858D02*
D03*
Y196850D02*
D03*
X461000Y251100D02*
D03*
X244000Y111100D02*
D03*
X461000D02*
D03*
X244000Y251100D02*
D03*
D62*
X206693Y236220D02*
D03*
X507874Y248031D02*
D03*
X513779Y236220D02*
D03*
X507874Y224409D02*
D03*
X513779Y212598D02*
D03*
X507874Y200787D02*
D03*
X513779Y188976D02*
D03*
X507874Y153543D02*
D03*
X513779Y141732D02*
D03*
X507874Y129921D02*
D03*
X513779Y118110D02*
D03*
X507874Y106299D02*
D03*
X496063Y248031D02*
D03*
X501968Y236220D02*
D03*
X496063Y224409D02*
D03*
X501968Y212598D02*
D03*
X496063Y200787D02*
D03*
X501968Y188976D02*
D03*
X496063Y153543D02*
D03*
X501968Y141732D02*
D03*
X496063Y129921D02*
D03*
X501968Y118110D02*
D03*
X496063Y106299D02*
D03*
X484252Y248031D02*
D03*
X490157Y236220D02*
D03*
X484252Y224409D02*
D03*
X490157Y212598D02*
D03*
X484252Y200787D02*
D03*
X490157Y188976D02*
D03*
X484252Y177165D02*
D03*
Y153543D02*
D03*
X490157Y141732D02*
D03*
X484252Y129921D02*
D03*
X490157Y118110D02*
D03*
X484252Y106299D02*
D03*
X472441Y248031D02*
D03*
X478346Y236220D02*
D03*
X472441Y224409D02*
D03*
X478346Y212598D02*
D03*
X472441Y200787D02*
D03*
X478346Y188976D02*
D03*
X472441Y177165D02*
D03*
Y153543D02*
D03*
X478346Y141732D02*
D03*
X472441Y129921D02*
D03*
X478346Y118110D02*
D03*
X472441Y106299D02*
D03*
X460630Y248031D02*
D03*
X466535Y236220D02*
D03*
X460630Y224409D02*
D03*
X466535Y212598D02*
D03*
X460630Y200787D02*
D03*
X466535Y188976D02*
D03*
X460630Y177165D02*
D03*
Y153543D02*
D03*
X466535Y141732D02*
D03*
X460630Y129921D02*
D03*
X466535Y118110D02*
D03*
X460630Y106299D02*
D03*
X448819Y248031D02*
D03*
X454724Y236220D02*
D03*
X448819Y224409D02*
D03*
X454724Y212598D02*
D03*
X448819Y200787D02*
D03*
X454724Y188976D02*
D03*
X448819Y177165D02*
D03*
Y153543D02*
D03*
X454724Y141732D02*
D03*
X448819Y129921D02*
D03*
X454724Y118110D02*
D03*
X448819Y106299D02*
D03*
X437008Y248031D02*
D03*
X442913Y236220D02*
D03*
X437008Y224409D02*
D03*
X442913Y212598D02*
D03*
X437008Y200787D02*
D03*
X442913Y188976D02*
D03*
X437008Y177165D02*
D03*
Y153543D02*
D03*
X442913Y141732D02*
D03*
X437008Y129921D02*
D03*
X442913Y118110D02*
D03*
X437008Y106299D02*
D03*
X425197Y248031D02*
D03*
X431102Y236220D02*
D03*
X425197Y224409D02*
D03*
X431102Y212598D02*
D03*
X425197Y200787D02*
D03*
X431102Y188976D02*
D03*
X425197Y177165D02*
D03*
Y153543D02*
D03*
X431102Y141732D02*
D03*
X425197Y129921D02*
D03*
X431102Y118110D02*
D03*
X425197Y106299D02*
D03*
X413386Y248031D02*
D03*
X419291Y236220D02*
D03*
X413386Y224409D02*
D03*
X419291Y212598D02*
D03*
X413386Y200787D02*
D03*
X419291Y188976D02*
D03*
X413386Y177165D02*
D03*
X419291Y141732D02*
D03*
X413386Y129921D02*
D03*
X419291Y118110D02*
D03*
X413386Y106299D02*
D03*
X401575Y248031D02*
D03*
X407480Y236220D02*
D03*
X401575Y224409D02*
D03*
X407480Y212598D02*
D03*
X401575Y200787D02*
D03*
X407480Y188976D02*
D03*
X401575Y177165D02*
D03*
Y153543D02*
D03*
X407480Y141732D02*
D03*
X401575Y129921D02*
D03*
X407480Y118110D02*
D03*
X401575Y106299D02*
D03*
X389764Y248031D02*
D03*
X395669Y236220D02*
D03*
X389764Y224409D02*
D03*
X395669Y212598D02*
D03*
X389764Y200787D02*
D03*
X395669Y188976D02*
D03*
X389764Y177165D02*
D03*
Y153543D02*
D03*
X395669Y141732D02*
D03*
X389764Y129921D02*
D03*
X395669Y118110D02*
D03*
X389764Y106299D02*
D03*
X383858Y236220D02*
D03*
Y212598D02*
D03*
Y188976D02*
D03*
X377953Y153543D02*
D03*
X383858Y141732D02*
D03*
X377953Y129921D02*
D03*
X383858Y118110D02*
D03*
X377953Y106299D02*
D03*
X366142Y153543D02*
D03*
X372047Y141732D02*
D03*
X366142Y129921D02*
D03*
X372047Y118110D02*
D03*
X366142Y106299D02*
D03*
X360236Y236220D02*
D03*
X354331Y224409D02*
D03*
X360236Y212598D02*
D03*
X354331Y200787D02*
D03*
X360236Y188976D02*
D03*
X354331Y177165D02*
D03*
X360236Y141732D02*
D03*
X354331Y129921D02*
D03*
X360236Y118110D02*
D03*
X354331Y106299D02*
D03*
X342520Y248031D02*
D03*
X348425Y236220D02*
D03*
X342520Y224409D02*
D03*
X348425Y212598D02*
D03*
X342520Y200787D02*
D03*
X348425Y188976D02*
D03*
Y141732D02*
D03*
X342520Y129921D02*
D03*
X348425Y118110D02*
D03*
X342520Y106299D02*
D03*
X330709Y248031D02*
D03*
X336614Y236220D02*
D03*
X330709Y224409D02*
D03*
X336614Y212598D02*
D03*
X330709Y200787D02*
D03*
X336614Y188976D02*
D03*
Y141732D02*
D03*
X330709Y129921D02*
D03*
X336614Y118110D02*
D03*
X330709Y106299D02*
D03*
X318898Y248031D02*
D03*
X324803Y236220D02*
D03*
X318898Y224409D02*
D03*
X324803Y212598D02*
D03*
X318898Y200787D02*
D03*
X324803Y188976D02*
D03*
Y141732D02*
D03*
X318898Y129921D02*
D03*
X324803Y118110D02*
D03*
X318898Y106299D02*
D03*
X307086Y153543D02*
D03*
X312992Y141732D02*
D03*
X307086Y129921D02*
D03*
X312992Y118110D02*
D03*
X307086Y106299D02*
D03*
X295275Y224409D02*
D03*
Y200787D02*
D03*
Y177165D02*
D03*
Y153543D02*
D03*
X301181Y141732D02*
D03*
X295275Y129921D02*
D03*
X301181Y118110D02*
D03*
X295275Y106299D02*
D03*
X283465Y248031D02*
D03*
X289370Y236220D02*
D03*
X283465Y224409D02*
D03*
X289370Y212598D02*
D03*
X283465Y200787D02*
D03*
X289370Y188976D02*
D03*
X283465Y177165D02*
D03*
Y153543D02*
D03*
X289370Y141732D02*
D03*
X283465Y129921D02*
D03*
X289370Y118110D02*
D03*
X283465Y106299D02*
D03*
X271654Y248031D02*
D03*
X277559Y236220D02*
D03*
X271654Y224409D02*
D03*
X277559Y212598D02*
D03*
X271654Y200787D02*
D03*
X277559Y188976D02*
D03*
X271654Y177165D02*
D03*
Y153543D02*
D03*
X277559Y141732D02*
D03*
X271654Y129921D02*
D03*
X277559Y118110D02*
D03*
X271654Y106299D02*
D03*
X259842Y248031D02*
D03*
X265748Y236220D02*
D03*
X259842Y224409D02*
D03*
X265748Y212598D02*
D03*
X259842Y200787D02*
D03*
X265748Y188976D02*
D03*
X259842Y177165D02*
D03*
Y153543D02*
D03*
X265748Y141732D02*
D03*
X259842Y129921D02*
D03*
X265748Y118110D02*
D03*
X259842Y106299D02*
D03*
X253937Y236220D02*
D03*
X248031Y224409D02*
D03*
X253937Y212598D02*
D03*
X248031Y200787D02*
D03*
X253937Y188976D02*
D03*
X248031Y177165D02*
D03*
Y153543D02*
D03*
X253937Y141732D02*
D03*
X248031Y129921D02*
D03*
X253937Y118110D02*
D03*
X248031Y106299D02*
D03*
X242126Y236220D02*
D03*
X236220Y224409D02*
D03*
X242126Y212598D02*
D03*
X236220Y200787D02*
D03*
X242126Y188976D02*
D03*
X236220Y177165D02*
D03*
X242126Y141732D02*
D03*
X236220Y129921D02*
D03*
X242126Y118110D02*
D03*
X236220Y106299D02*
D03*
X224409Y153543D02*
D03*
X230315Y141732D02*
D03*
X224409Y129921D02*
D03*
X230315Y118110D02*
D03*
X224409Y106299D02*
D03*
X212598Y200787D02*
D03*
X218504Y141732D02*
D03*
X212598Y129921D02*
D03*
X218504Y118110D02*
D03*
X212598Y106299D02*
D03*
X200787Y248031D02*
D03*
Y224409D02*
D03*
X206693Y212598D02*
D03*
X200787Y200787D02*
D03*
X206693Y188976D02*
D03*
X200787Y153543D02*
D03*
X206693Y141732D02*
D03*
X200787Y129921D02*
D03*
X206693Y118110D02*
D03*
X200787Y106299D02*
D03*
X188976Y248031D02*
D03*
X194882Y236220D02*
D03*
X188976Y224409D02*
D03*
X194882Y212598D02*
D03*
X188976Y200787D02*
D03*
X194882Y188976D02*
D03*
X188976Y177165D02*
D03*
Y153543D02*
D03*
X194882Y141732D02*
D03*
X188976Y129921D02*
D03*
X194882Y118110D02*
D03*
X188976Y106299D02*
D03*
X183071Y236220D02*
D03*
Y212598D02*
D03*
Y188976D02*
D03*
X177165Y153543D02*
D03*
X183071Y141732D02*
D03*
X177165Y129921D02*
D03*
X183071Y118110D02*
D03*
X177165Y106299D02*
D03*
X165354Y153543D02*
D03*
X171260Y141732D02*
D03*
X165354Y129921D02*
D03*
X171260Y118110D02*
D03*
X165354Y106299D02*
D03*
X159449Y236220D02*
D03*
X153543Y224409D02*
D03*
X159449Y212598D02*
D03*
X153543Y200787D02*
D03*
X159449Y188976D02*
D03*
X153543Y177165D02*
D03*
X159449Y141732D02*
D03*
X153543Y129921D02*
D03*
X159449Y118110D02*
D03*
X153543Y106299D02*
D03*
X141732Y248031D02*
D03*
X147638Y236220D02*
D03*
X141732Y224409D02*
D03*
X147638Y212598D02*
D03*
X141732Y200787D02*
D03*
X147638Y188976D02*
D03*
X141732Y177165D02*
D03*
X147638Y141732D02*
D03*
X141732Y129921D02*
D03*
X147638Y118110D02*
D03*
X141732Y106299D02*
D03*
X129921Y248031D02*
D03*
X135827Y236220D02*
D03*
X129921Y224409D02*
D03*
X135827Y212598D02*
D03*
X129921Y200787D02*
D03*
X135827Y188976D02*
D03*
X129921Y177165D02*
D03*
Y153543D02*
D03*
X135827Y141732D02*
D03*
X129921Y129921D02*
D03*
X135827Y118110D02*
D03*
X129921Y106299D02*
D03*
X118110Y248031D02*
D03*
X124016Y236220D02*
D03*
X118110Y224409D02*
D03*
X124016Y212598D02*
D03*
X118110Y200787D02*
D03*
X124016Y188976D02*
D03*
X118110Y153543D02*
D03*
X124016Y141732D02*
D03*
X118110Y129921D02*
D03*
X124016Y118110D02*
D03*
X118110Y106299D02*
D03*
X106299Y248031D02*
D03*
X112205Y236220D02*
D03*
X106299Y224409D02*
D03*
X112205Y212598D02*
D03*
X106299Y200787D02*
D03*
X112205Y188976D02*
D03*
X106299Y153543D02*
D03*
X112205Y141732D02*
D03*
X106299Y129921D02*
D03*
X112205Y118110D02*
D03*
X106299Y106299D02*
D03*
X212598Y181103D02*
D03*
Y173228D02*
D03*
X210630Y185039D02*
D03*
X208662Y181103D02*
D03*
X210630Y177165D02*
D03*
X208662Y173228D02*
D03*
X206693Y185039D02*
D03*
X204725Y181103D02*
D03*
X206693Y177165D02*
D03*
X204725Y173228D02*
D03*
X202756Y185039D02*
D03*
X200787Y181103D02*
D03*
X202756Y177165D02*
D03*
X200787Y173228D02*
D03*
X198819Y185039D02*
D03*
X196851Y181103D02*
D03*
X198819Y177165D02*
D03*
X196851Y173228D02*
D03*
X194882Y185039D02*
D03*
X192913Y181103D02*
D03*
X194882Y177165D02*
D03*
X192913Y173228D02*
D03*
X342520Y200787D02*
D03*
Y192913D02*
D03*
Y185039D02*
D03*
Y145669D02*
D03*
Y137795D02*
D03*
Y129921D02*
D03*
Y122047D02*
D03*
X340551Y204725D02*
D03*
X338583Y200787D02*
D03*
X340551Y196851D02*
D03*
X338583Y192913D02*
D03*
X340551Y188977D02*
D03*
X338583Y185039D02*
D03*
X340551Y181103D02*
D03*
Y149606D02*
D03*
X338583Y145669D02*
D03*
X340551Y141732D02*
D03*
X338583Y137795D02*
D03*
X340551Y133858D02*
D03*
X338583Y129921D02*
D03*
X340551Y125984D02*
D03*
X338583Y122047D02*
D03*
X336614Y204725D02*
D03*
X334646Y200787D02*
D03*
X336614Y196851D02*
D03*
X334646Y192913D02*
D03*
X336614Y188977D02*
D03*
X334646Y185039D02*
D03*
X336614Y181103D02*
D03*
Y149606D02*
D03*
X334646Y145669D02*
D03*
X336614Y141732D02*
D03*
X334646Y137795D02*
D03*
X336614Y133858D02*
D03*
X334646Y129921D02*
D03*
X336614Y125984D02*
D03*
X334646Y122047D02*
D03*
X332677Y204725D02*
D03*
X330709Y200787D02*
D03*
X332677Y196851D02*
D03*
X330709Y192913D02*
D03*
X332677Y188977D02*
D03*
X330709Y185039D02*
D03*
X332677Y181103D02*
D03*
Y149606D02*
D03*
X330709Y145669D02*
D03*
X332677Y141732D02*
D03*
X330709Y137795D02*
D03*
X332677Y133858D02*
D03*
X330709Y129921D02*
D03*
X332677Y125984D02*
D03*
X330709Y122047D02*
D03*
X328740Y204725D02*
D03*
X326772Y200787D02*
D03*
X328740Y196851D02*
D03*
X326772Y192913D02*
D03*
X328740Y188977D02*
D03*
X326772Y185039D02*
D03*
X328740Y181103D02*
D03*
Y149606D02*
D03*
X326772Y145669D02*
D03*
X328740Y141732D02*
D03*
X326772Y137795D02*
D03*
X328740Y133858D02*
D03*
X326772Y129921D02*
D03*
X328740Y125984D02*
D03*
X326772Y122047D02*
D03*
X324803Y204725D02*
D03*
X322835Y200787D02*
D03*
X324803Y196851D02*
D03*
X322835Y192913D02*
D03*
X324803Y188977D02*
D03*
X322835Y185039D02*
D03*
X324803Y181103D02*
D03*
Y149606D02*
D03*
X322835Y145669D02*
D03*
X324803Y141732D02*
D03*
X322835Y137795D02*
D03*
X324803Y133858D02*
D03*
X322835Y129921D02*
D03*
X324803Y125984D02*
D03*
X322835Y122047D02*
D03*
X320866Y204725D02*
D03*
X318898Y200787D02*
D03*
X320866Y196851D02*
D03*
X318898Y192913D02*
D03*
X320866Y188977D02*
D03*
X318898Y185039D02*
D03*
X320866Y181103D02*
D03*
Y149606D02*
D03*
X318898Y145669D02*
D03*
X320866Y141732D02*
D03*
X318898Y137795D02*
D03*
X320866Y133858D02*
D03*
X318898Y129921D02*
D03*
X320866Y125984D02*
D03*
X318898Y122047D02*
D03*
X316929Y204725D02*
D03*
X314961Y200787D02*
D03*
X316929Y196851D02*
D03*
X314961Y192913D02*
D03*
X316929Y188977D02*
D03*
X314961Y185039D02*
D03*
X316929Y181103D02*
D03*
Y149606D02*
D03*
X314961Y145669D02*
D03*
X316929Y141732D02*
D03*
X314961Y137795D02*
D03*
X316929Y133858D02*
D03*
X314961Y129921D02*
D03*
X316929Y125984D02*
D03*
X314961Y122047D02*
D03*
D63*
X325833Y173742D02*
D03*
X329770D02*
D03*
X325833Y169806D02*
D03*
X329770D02*
D03*
X325833Y165868D02*
D03*
X329770D02*
D03*
X325833Y161932D02*
D03*
X329770D02*
D03*
X325833Y157994D02*
D03*
X329770D02*
D03*
X325833Y154058D02*
D03*
X329770D02*
D03*
M02*
